DATE,VALUE,A,B,C,D,E
1/1/1948,3.4,2.4,4.5,2.4,2.2,5.6
2/1/1948,3.8,2.7,3.5,8.8,3.4,4.2
3/1/1948,4.2,2.5,4.6,4.3,4.1,7.3
4/1/1948,5.1,2.633333333,4.3,7.066666667,5.133333333,7.4
5/1/1948,1.9,2.683333333,4.35,8.016666667,6.083333333,8.25
6/1/1948,2.4,2.733333333,4.4,8.966666667,7.033333333,9.1
7/1/1948,3.2,2.783333333,4.45,9.916666667,7.983333333,9.95
8/1/1948,4.4,2.833333333,4.5,10.86666667,8.933333333,10.8
9/1/1948,5.2,2.883333333,4.55,11.81666667,9.883333333,11.65
10/1/1948,3.2,2.933333333,4.6,12.76666667,10.83333333,12.5
11/1/1948,2.1,2.983333333,4.65,13.71666667,11.78333333,13.35
12/1/1948,1.2,3.033333333,4.7,14.66666667,12.73333333,14.2
1/1/1949,5.5,3.083333333,4.75,15.61666667,13.68333333,15.05
2/1/1949,3.2,3.133333333,4.8,16.56666667,14.63333333,15.9
3/1/1949,6.2,3.183333333,4.85,17.51666667,15.58333333,16.75
4/1/1949,1.3,3.233333333,4.9,18.46666667,16.53333333,30
